<%= form_with model: @person do |form| %>
  Addresses:
  <ul>
    <%= form.fields_for :addresses do |addresses_form| %>
      <li>
        <%= addresses_form.label :kind %>
        <%= addresses_form.text_field :kind %>

        <%= addresses_form.label :street %>
        <%= addresses_form.text_field :street %>
       
      </li>
    <% end %>
  </ul>
<% end %>

